{
  "name": "tomodule",
  "title": "The Tomodule",
  "description": "Pathfinder 2e module for Foundry",
  "version": "0.1.1",
  "author": "Shark that walks like a man",
  "esmodules": ["src/tomodule.js"],
  "styles": ["css/tomodule.css"],
  "socket": true,
  "systems": ["pf2e"],
  "manifest": "https://gitlab.com/bipedalshark/tomodule/-/raw/master/module.json",
  "download": "https://gitlab.com/bipedalshark/tomodule/-/archive/master/tomodule-master.zip",
  "minimumCoreVersion": "0.7.9",
  "compatibleCoreVersion": "0.7.10",
  "packs": [ ]
}
