[
  {
    "name": "zAlfa",
    "permission": {
      "default": 0
    },
    "type": "condition",
    "data": {
      "description": {
        "value": "",
        "chat": "",
        "unidentified": ""
      },
      "source": {
        "value": ""
      },
      "traits": {
        "value": []
      },
      "rarity": {
        "value": "common"
      },
      "usage": {
        "value": "held-in-one-hand"
      },
      "rules": [],
      "active": true,
      "removable": true,
      "references": {
        "children": [],
        "overrides": [],
        "overriddenBy": [],
        "immunityFrom": []
      },
      "hud": {
        "statusName": "zalfa",
        "selectable": true,
        "img": {
          "useStatusName": false,
          "value": "modules/tomodule/icons/markers/menu/alfa.svg"
        }
      },
      "duration": {
        "perpetual": true,
        "value": 0,
        "text": ""
      },
      "modifiers": [],
      "base": "zAlfa",
      "group": "inert",
      "value": {
        "isValued": false,
        "immutable": false,
        "value": 0,
        "modifiers": []
      },
      "sources": {
        "hud": false,
        "values": []
      },
      "alsoApplies": {
        "linked": [],
        "unlinked": []
      },
      "overrides": []
    },
    "flags": {
      "pf2e": {
        "condition": true
      }
    },
    "img": "modules/tomodule/icons/markers/alfa.svg",
    "effects": [],
    "_id": "9UaniTSgypfNre8z",
    "group": "inert"
  },
  {
    "name": "zBravo",
    "permission": {
      "default": 0
    },
    "type": "condition",
    "data": {
      "description": {
        "value": "",
        "chat": "",
        "unidentified": ""
      },
      "source": {
        "value": ""
      },
      "traits": {
        "value": []
      },
      "rarity": {
        "value": "common"
      },
      "usage": {
        "value": "held-in-one-hand"
      },
      "rules": [],
      "active": true,
      "removable": true,
      "references": {
        "children": [],
        "overrides": [],
        "overriddenBy": [],
        "immunityFrom": []
      },
      "hud": {
        "statusName": "zbravo",
        "selectable": true,
        "img": {
          "useStatusName": false,
          "value": "modules/tomodule/icons/markers/menu/bravo.svg"
        }
      },
      "modifiers": [],
      "base": "zBravo",
      "group": "inert",
      "value": {
        "isValued": false,
        "immutable": true,
        "value": 0,
        "modifiers": []
      },
      "sources": {
        "hud": false,
        "values": []
      },
      "alsoApplies": {
        "linked": [],
        "unlinked": []
      },
      "overrides": []
    },
    "flags": {
      "pf2e": {
        "condition": true
      }
    },
    "img": "modules/tomodule/icons/markers/bravo.svg",
    "effects": [],
    "_id": "8mMG5NWx7KdihiWq",
    "group": "inert"
  },
  {
    "name": "zCharlie",
    "permission": {
      "default": 0
    },
    "type": "condition",
    "data": {
      "description": {
        "value": "",
        "chat": "",
        "unidentified": ""
      },
      "source": {
        "value": ""
      },
      "traits": {
        "value": []
      },
      "rarity": {
        "value": "common"
      },
      "usage": {
        "value": "held-in-one-hand"
      },
      "rules": [],
      "active": true,
      "removable": true,
      "references": {
        "children": [],
        "overrides": [],
        "overriddenBy": [],
        "immunityFrom": []
      },
      "hud": {
        "statusName": "zcharlie",
        "selectable": true,
        "img": {
          "useStatusName": false,
          "value": "modules/tomodule/icons/markers/menu/charlie.svg"
        }
      },
      "duration": {
        "perpetual": true,
        "value": 0,
        "text": ""
      },
      "modifiers": [],
      "base": "zCharlie",
      "group": "inert",
      "value": {
        "isValued": false,
        "immutable": false,
        "value": 0,
        "modifiers": []
      },
      "sources": {
        "hud": false,
        "values": []
      },
      "alsoApplies": {
        "linked": [],
        "unlinked": []
      },
      "overrides": []
    },
    "flags": {
      "pf2e": {
        "condition": true
      }
    },
    "img": "modules/tomodule/icons/markers/charlie.svg",
    "effects": [],
    "_id": "nWoYwmvSljAUBFg8",
    "group": "inert"
  },
  {
    "name": "zDelta",
    "permission": {
      "default": 0
    },
    "type": "condition",
    "data": {
      "description": {
        "value": "",
        "chat": "",
        "unidentified": ""
      },
      "source": {
        "value": ""
      },
      "traits": {
        "value": []
      },
      "rarity": {
        "value": "common"
      },
      "usage": {
        "value": "held-in-one-hand"
      },
      "rules": [],
      "active": true,
      "removable": true,
      "references": {
        "children": [],
        "overrides": [],
        "overriddenBy": [],
        "immunityFrom": []
      },
      "hud": {
        "statusName": "zdelta",
        "selectable": true,
        "img": {
          "useStatusName": false,
          "value": "modules/tomodule/icons/markers/menu/delta.svg"
        }
      },
      "duration": {
        "perpetual": true,
        "value": 0,
        "text": ""
      },
      "modifiers": [],
      "base": "zDelta",
      "group": "inert",
      "value": {
        "isValued": false,
        "immutable": false,
        "value": 0,
        "modifiers": []
      },
      "sources": {
        "hud": false,
        "values": []
      },
      "alsoApplies": {
        "linked": [],
        "unlinked": []
      },
      "overrides": []
    },
    "flags": {
      "pf2e": {
        "condition": true
      }
    },
    "img": "modules/tomodule/icons/markers/delta.svg",
    "effects": [],
    "_id": "C9PJ8dKaW2POSWtM",
    "group": "inert"
  },
  {
    "name": "zEcho",
    "permission": {
      "default": 0
    },
    "type": "condition",
    "data": {
      "description": {
        "value": "",
        "chat": "",
        "unidentified": ""
      },
      "source": {
        "value": ""
      },
      "traits": {
        "value": []
      },
      "rarity": {
        "value": "common"
      },
      "usage": {
        "value": "held-in-one-hand"
      },
      "rules": [],
      "active": true,
      "removable": true,
      "references": {
        "children": [],
        "overrides": [],
        "overriddenBy": [],
        "immunityFrom": []
      },
      "hud": {
        "statusName": "zecho",
        "selectable": true,
        "img": {
          "useStatusName": false,
          "value": "modules/tomodule/icons/markers/menu/echo.svg"
        }
      },
      "duration": {
        "perpetual": true,
        "value": 0,
        "text": ""
      },
      "modifiers": [],
      "base": "zEcho",
      "group": "inert",
      "value": {
        "isValued": false,
        "immutable": false,
        "value": 0,
        "modifiers": []
      },
      "sources": {
        "hud": false,
        "values": []
      },
      "alsoApplies": {
        "linked": [],
        "unlinked": []
      },
      "overrides": []
    },
    "flags": {
      "pf2e": {
        "condition": true
      }
    },
    "img": "modules/tomodule/icons/markers/echo.svg",
    "effects": [],
    "_id": "7ytRR3fJBzQTL91W",
    "group": "inert"
  },
  {
    "name": "zFoxtrot",
    "permission": {
      "default": 0
    },
    "type": "condition",
    "data": {
      "description": {
        "value": "",
        "chat": "",
        "unidentified": ""
      },
      "source": {
        "value": ""
      },
      "traits": {
        "value": []
      },
      "rarity": {
        "value": "common"
      },
      "usage": {
        "value": "held-in-one-hand"
      },
      "rules": [],
      "active": true,
      "removable": true,
      "references": {
        "children": [],
        "overrides": [],
        "overriddenBy": [],
        "immunityFrom": []
      },
      "hud": {
        "statusName": "zfoxtrot",
        "selectable": true,
        "img": {
          "useStatusName": false,
          "value": "modules/tomodule/icons/markers/menu/foxtrot.svg"
        }
      },
      "duration": {
        "perpetual": true,
        "value": 0,
        "text": ""
      },
      "modifiers": [],
      "base": "zFoxtrot",
      "group": "inert",
      "value": {
        "isValued": false,
        "immutable": false,
        "value": 0,
        "modifiers": []
      },
      "sources": {
        "hud": false,
        "values": []
      },
      "alsoApplies": {
        "linked": [],
        "unlinked": []
      },
      "overrides": []
    },
    "flags": {
      "pf2e": {
        "condition": true
      }
    },
    "img": "modules/tomodule/icons/markers/foxtrot.svg",
    "effects": [],
    "_id": "JnD12sCX66vBEBUL",
    "group": "inert"
  },
  {
    "name": "zGolf",
    "permission": {
      "default": 0
    },
    "type": "condition",
    "data": {
      "description": {
        "value": "",
        "chat": "",
        "unidentified": ""
      },
      "source": {
        "value": ""
      },
      "traits": {
        "value": []
      },
      "rarity": {
        "value": "common"
      },
      "usage": {
        "value": "held-in-one-hand"
      },
      "rules": [],
      "active": true,
      "removable": true,
      "references": {
        "children": [],
        "overrides": [],
        "overriddenBy": [],
        "immunityFrom": []
      },
      "hud": {
        "statusName": "zgolf",
        "selectable": true,
        "img": {
          "useStatusName": false,
          "value": "modules/tomodule/icons/markers/menu/golf.svg"
        }
      },
      "duration": {
        "perpetual": true,
        "value": 0,
        "text": ""
      },
      "modifiers": [],
      "base": "zGolf",
      "group": "inert",
      "value": {
        "isValued": false,
        "immutable": false,
        "value": 0,
        "modifiers": []
      },
      "sources": {
        "hud": false,
        "values": []
      },
      "alsoApplies": {
        "linked": [],
        "unlinked": []
      },
      "overrides": []
    },
    "flags": {
      "pf2e": {
        "condition": true
      }
    },
    "img": "modules/tomodule/icons/markers/golf.svg",
    "effects": [],
    "_id": "B07G0nRBhe24Ir0M",
    "group": "inert"
  }
]
